{
    "result": [
        {
            "msgUid": 2000000000001,
            "userUid": null,
            "oriContent": "【範本】這是反對方留言的原始內容文字，可替換為實際資料。",
            "parentMsgUid": null,
            "cdate": "2026-01-16 11:00:00",
            "requestIp": "192.0.2.11",
            "likeCount": 0,
            "replyCount": 0,
            "queryNickname": "匿名使用者乙",
            "fixNickname": 0,
            "replyMsgUid": null,
            "floorNumber": null,
            "identity": "normal",
            "board": {
                "boardUid": 1700000000000,
                "title": "【範本】提案標題：請替換為實際議題名稱",
                "message": null,
                "baseUrl": "/idea/detail/00000000-0000-4000-8000-000000000001",
                "cdate": 1700000000000,
                "postSdate": null,
                "postEdate": 1799999999999,
                "stat": 0,
                "threadId": null,
                "enable": false,
                "subjectUid": "00000000-0000-4000-8000-000000000001",
                "subjectType": "idea",
                "disable": true,
                "boardStatus": "Disable"
            },
            "unlikeCount": 0,
            "sharedCount": 0,
            "reportCount": 0,
            "inBlackCount": 0,
            "likeActions": null,
            "replyMessages": [],
            "parentMessageAuthorDisplayName": null,
            "deleteRemark": null,
            "postId": null,
            "id": 2001,
            "sideType": "Negative",
            "agreeCount": 1,
            "disagreeCount": 4,
            "sideFloorNumber": 5,
            "content4Html": "【範本】這是反對方留言的 HTML 版內容。",
            "status": "ENABLE",
            "anonymous": true,
            "displayStyle": "normal",
            "isAnonymous": "Y",
            "hasMoreReply": false,
            "canOpenModifyBox": false,
            "agreed": false,
            "disagreed": false,
            "voted": false,
            "beforeNowROC": "3週前",
            "isEnable": true,
            "author": {
                "userUid": null,
                "userId": null,
                "userRegisterFrom": null,
                "userEmail": "",
                "userStatus": null,
                "nickName": null,
                "userProfiles": [],
                "isAdmin": false,
                "openId": null,
                "displayName": "匿名使用者乙",
                "profilePicture": null
            },
            "content": "【範本】這是反對方留言的原始內容文字，可替換為實際資料。",
            "isBlankAuthorName": false,
            "isSpam": false,
            "isDeleted": false,
            "isDeletedByAdmin": false,
            "liked": false,
            "beforeNow": "3週前",
            "links": [],
            "images": []
        },
        {
            "msgUid": 2000000000002,
            "userUid": "aaaaaaaa-aaaa-4aaa-8aaa-aaaaaaaaaaaa",
            "oriContent": "【範本】反對方已登入使用者：引用法規或部會回覆的範例段落。",
            "parentMsgUid": null,
            "cdate": "2026-01-12 14:20:00",
            "requestIp": "198.51.100.21",
            "likeCount": 0,
            "replyCount": 0,
            "queryNickname": "範本使用者丙",
            "fixNickname": 0,
            "replyMsgUid": null,
            "floorNumber": null,
            "identity": "normal",
            "board": {
                "boardUid": 1700000000000,
                "title": "【範本】提案標題：請替換為實際議題名稱",
                "message": null,
                "baseUrl": "/idea/detail/00000000-0000-4000-8000-000000000001",
                "cdate": 1700000000000,
                "postSdate": null,
                "postEdate": 1799999999999,
                "stat": 0,
                "threadId": null,
                "enable": false,
                "subjectUid": "00000000-0000-4000-8000-000000000001",
                "subjectType": "idea",
                "disable": true,
                "boardStatus": "Disable"
            },
            "unlikeCount": 0,
            "sharedCount": 0,
            "reportCount": 0,
            "inBlackCount": 0,
            "likeActions": null,
            "replyMessages": [],
            "parentMessageAuthorDisplayName": null,
            "deleteRemark": null,
            "postId": null,
            "id": 2002,
            "sideType": "Negative",
            "agreeCount": 0,
            "disagreeCount": 2,
            "sideFloorNumber": 4,
            "content4Html": "【範本】反對方已登入使用者：引用法規或部會回覆的範例段落。<br/>內政部回應&quot;範例引用文字&quot; 是否可行？",
            "status": "ENABLE",
            "anonymous": false,
            "displayStyle": "normal",
            "isAnonymous": "N",
            "hasMoreReply": false,
            "canOpenModifyBox": false,
            "agreed": false,
            "disagreed": true,
            "voted": true,
            "beforeNowROC": "1個月前",
            "isEnable": true,
            "author": {
                "userUid": "aaaaaaaa-aaaa-4aaa-8aaa-aaaaaaaaaaaa",
                "userId": "GOOGLE-999888777666555444333",
                "userRegisterFrom": "GOOGLE",
                "userEmail": "another.example@example.org",
                "userStatus": "Y",
                "nickName": "丙丙",
                "userProfiles": [
                    {
                        "profileUid": "bbbbbbbb-bbbb-4bbb-8bbb-bbbbbbbbbbbb",
                        "userUid": "aaaaaaaa-aaaa-4aaa-8aaa-aaaaaaaaaaaa",
                        "profileId": "picture",
                        "content": "https://www.example.com/avatar/sample2.png"
                    },
                    {
                        "profileUid": "cccccccc-cccc-4ccc-8ccc-cccccccccccc",
                        "userUid": "aaaaaaaa-aaaa-4aaa-8aaa-aaaaaaaaaaaa",
                        "profileId": "userRegisterFrom",
                        "content": "GOOGLE"
                    },
                    {
                        "profileUid": "dddddddd-dddd-4ddd-8ddd-dddddddddddd",
                        "userUid": "aaaaaaaa-aaaa-4aaa-8aaa-aaaaaaaaaaaa",
                        "profileId": "id",
                        "content": "999888777666555444333"
                    },
                    {
                        "profileUid": "eeeeeeee-eeee-4eee-8eee-eeeeeeeeeeee",
                        "userUid": "aaaaaaaa-aaaa-4aaa-8aaa-aaaaaaaaaaaa",
                        "profileId": "link",
                        "content": null
                    }
                ],
                "isAdmin": false,
                "openId": "999888777666555444333",
                "displayName": "範本使用者丙",
                "profilePicture": null
            },
            "content": "【範本】反對方已登入使用者：引用法規或部會回覆的範例段落。\n內政部回應&quot;範例引用文字&quot; 是否可行？",
            "isBlankAuthorName": false,
            "isSpam": false,
            "isDeleted": false,
            "isDeletedByAdmin": false,
            "liked": false,
            "beforeNow": "1個月前",
            "links": [],
            "images": [
                {
                    "uid": "ffffffff-ffff-4fff-8fff-ffffffffffff",
                    "msgUid": 2000000000002,
                    "name": "sample-image.jpg",
                    "title": "sample-image.jpg",
                    "url": "/attachments/00000000-0000-4000-8000-0000000000ab",
                    "createTime": 1700000002000,
                    "updateDate": null,
                    "attachmentUid": "00000000-0000-4000-8000-0000000000ab"
                }
            ]
        },
        {
            "msgUid": 2000000000003,
            "userUid": null,
            "oriContent": "【範本】遭檢舉待審：oriContent 可能仍保留；對外顯示為審核中。",
            "parentMsgUid": null,
            "cdate": "2026-01-08 08:00:00",
            "requestIp": "203.0.113.40",
            "likeCount": 0,
            "replyCount": 0,
            "queryNickname": "待審留言者",
            "fixNickname": 0,
            "replyMsgUid": null,
            "floorNumber": null,
            "identity": "normal",
            "board": {
                "boardUid": 1700000000000,
                "title": "【範本】提案標題：請替換為實際議題名稱",
                "message": null,
                "baseUrl": "/idea/detail/00000000-0000-4000-8000-000000000001",
                "cdate": 1700000000000,
                "postSdate": null,
                "postEdate": 1799999999999,
                "stat": 0,
                "threadId": null,
                "enable": false,
                "subjectUid": "00000000-0000-4000-8000-000000000001",
                "subjectType": "idea",
                "disable": true,
                "boardStatus": "Disable"
            },
            "unlikeCount": 0,
            "sharedCount": 0,
            "reportCount": 3,
            "inBlackCount": 0,
            "likeActions": null,
            "replyMessages": [],
            "parentMessageAuthorDisplayName": null,
            "deleteRemark": null,
            "postId": null,
            "id": 2003,
            "sideType": "Negative",
            "agreeCount": 0,
            "disagreeCount": 0,
            "sideFloorNumber": 3,
            "content4Html": "此留言正在等待審核中",
            "status": "REPORT_PENDING",
            "anonymous": true,
            "displayStyle": "pending",
            "isAnonymous": "Y",
            "hasMoreReply": false,
            "canOpenModifyBox": false,
            "agreed": false,
            "disagreed": false,
            "voted": false,
            "beforeNowROC": "2個月前",
            "isEnable": false,
            "author": {
                "userUid": null,
                "userId": null,
                "userRegisterFrom": null,
                "userEmail": "",
                "userStatus": null,
                "nickName": null,
                "userProfiles": [],
                "isAdmin": false,
                "openId": null,
                "displayName": "待審留言者",
                "profilePicture": null
            },
            "content": "此留言正在等待審核中",
            "isBlankAuthorName": false,
            "isSpam": false,
            "isDeleted": false,
            "isDeletedByAdmin": false,
            "liked": false,
            "beforeNow": "2個月前",
            "links": [],
            "images": []
        }
    ],
    "firstResult": 0,
    "maxResults": 10,
    "totalResults": 19,
    "totalPages": 2,
    "currentPage": 1,
    "surplusResults": 9,
    "otherResultCountMap": null,
    "success": true
}
