{
    "result": [
        {
            "msgUid": 1000000000001,
            "userUid": null,
            "oriContent": "【範本】這是贊成方留言的原始內容文字，可替換為實際資料。",
            "parentMsgUid": null,
            "cdate": "2026-01-15 10:30:00",
            "requestIp": "192.0.2.10",
            "likeCount": 2,
            "replyCount": 0,
            "queryNickname": "匿名使用者甲",
            "fixNickname": 0,
            "replyMsgUid": null,
            "floorNumber": null,
            "identity": "normal",
            "board": {
                "boardUid": 1700000000000,
                "title": "【範本】提案標題：請替換為實際議題名稱",
                "message": null,
                "baseUrl": "/idea/detail/00000000-0000-4000-8000-000000000001",
                "cdate": 1700000000000,
                "postSdate": null,
                "postEdate": 1799999999999,
                "stat": 0,
                "threadId": null,
                "enable": false,
                "subjectUid": "00000000-0000-4000-8000-000000000001",
                "subjectType": "idea",
                "disable": true,
                "boardStatus": "Disable"
            },
            "unlikeCount": 0,
            "sharedCount": 0,
            "reportCount": 0,
            "inBlackCount": 0,
            "likeActions": null,
            "replyMessages": [],
            "parentMessageAuthorDisplayName": null,
            "deleteRemark": null,
            "postId": null,
            "id": 1001,
            "sideType": "Positive",
            "agreeCount": 5,
            "disagreeCount": 1,
            "sideFloorNumber": 10,
            "content4Html": "【範本】這是贊成方留言的 HTML 版內容，可含&lt;br/&gt;換行。",
            "status": "ENABLE",
            "anonymous": true,
            "displayStyle": "normal",
            "isAnonymous": "Y",
            "hasMoreReply": false,
            "canOpenModifyBox": false,
            "agreed": false,
            "disagreed": false,
            "voted": false,
            "beforeNowROC": "1個月前",
            "isEnable": true,
            "author": {
                "userUid": null,
                "userId": null,
                "userRegisterFrom": null,
                "userEmail": "",
                "userStatus": null,
                "nickName": null,
                "userProfiles": [],
                "isAdmin": false,
                "openId": null,
                "displayName": "匿名使用者甲",
                "profilePicture": null
            },
            "content": "【範本】這是贊成方留言的原始內容文字，可替換為實際資料。",
            "isBlankAuthorName": false,
            "isSpam": false,
            "isDeleted": false,
            "isDeletedByAdmin": false,
            "liked": false,
            "beforeNow": "1個月前",
            "links": [],
            "images": []
        },
        {
            "msgUid": 1000000000002,
            "userUid": "11111111-1111-4111-8111-111111111111",
            "oriContent": "【範本】已登入使用者贊成意見：制度設計應納入跨機關查詢範例。",
            "parentMsgUid": null,
            "cdate": "2026-01-14 15:00:00",
            "requestIp": "198.51.100.20",
            "likeCount": 0,
            "replyCount": 1,
            "queryNickname": "範本使用者",
            "fixNickname": 0,
            "replyMsgUid": null,
            "floorNumber": null,
            "identity": "normal",
            "board": {
                "boardUid": 1700000000000,
                "title": "【範本】提案標題：請替換為實際議題名稱",
                "message": null,
                "baseUrl": "/idea/detail/00000000-0000-4000-8000-000000000001",
                "cdate": 1700000000000,
                "postSdate": null,
                "postEdate": 1799999999999,
                "stat": 0,
                "threadId": null,
                "enable": false,
                "subjectUid": "00000000-0000-4000-8000-000000000001",
                "subjectType": "idea",
                "disable": true,
                "boardStatus": "Disable"
            },
            "unlikeCount": 0,
            "sharedCount": 0,
            "reportCount": 0,
            "inBlackCount": 0,
            "likeActions": null,
            "replyMessages": [],
            "parentMessageAuthorDisplayName": null,
            "deleteRemark": null,
            "postId": null,
            "id": 1002,
            "sideType": "Positive",
            "agreeCount": 3,
            "disagreeCount": 0,
            "sideFloorNumber": 9,
            "content4Html": "【範本】已登入使用者贊成意見：制度設計應納入跨機關查詢範例。<br/>第二段文字。",
            "status": "ENABLE",
            "anonymous": false,
            "displayStyle": "normal",
            "isAnonymous": "N",
            "hasMoreReply": false,
            "canOpenModifyBox": false,
            "agreed": true,
            "disagreed": false,
            "voted": true,
            "beforeNowROC": "1個月前",
            "isEnable": true,
            "author": {
                "userUid": "11111111-1111-4111-8111-111111111111",
                "userId": "GOOGLE-123456789012345678901",
                "userRegisterFrom": "GOOGLE",
                "userEmail": "user.example@example.com",
                "userStatus": "Y",
                "nickName": "範本暱稱",
                "userProfiles": [
                    {
                        "profileUid": "22222222-2222-4222-8222-222222222222",
                        "userUid": "11111111-1111-4111-8111-111111111111",
                        "profileId": "userRegisterFrom",
                        "content": "GOOGLE"
                    },
                    {
                        "profileUid": "33333333-3333-4333-8333-333333333333",
                        "userUid": "11111111-1111-4111-8111-111111111111",
                        "profileId": "id",
                        "content": "123456789012345678901"
                    },
                    {
                        "profileUid": "44444444-4444-4444-8444-444444444444",
                        "userUid": "11111111-1111-4111-8111-111111111111",
                        "profileId": "picture",
                        "content": "https://www.example.com/avatar/sample.png"
                    },
                    {
                        "profileUid": "55555555-5555-4555-8555-555555555555",
                        "userUid": "11111111-1111-4111-8111-111111111111",
                        "profileId": "link",
                        "content": null
                    }
                ],
                "isAdmin": false,
                "openId": "123456789012345678901",
                "displayName": "範本使用者",
                "profilePicture": null
            },
            "content": "【範本】已登入使用者贊成意見：制度設計應納入跨機關查詢範例。\n第二段文字。",
            "isBlankAuthorName": false,
            "isSpam": false,
            "isDeleted": false,
            "isDeletedByAdmin": false,
            "liked": false,
            "beforeNow": "1個月前",
            "links": [
                {
                    "uid": "66666666-6666-4666-8666-666666666666",
                    "msgUid": 1000000000002,
                    "name": "",
                    "title": "",
                    "url": "https://www.example.com/article/sample",
                    "createTime": 1700000001000,
                    "updateDate": 1700000001000
                }
            ],
            "images": []
        },
        {
            "msgUid": 1000000000003,
            "userUid": "11111111-1111-4111-8111-111111111112",
            "oriContent": "【範本】此則曾由使用者刪除，oriContent 仍可能保留於後台。",
            "parentMsgUid": null,
            "cdate": "2026-01-10 09:00:00",
            "requestIp": "203.0.113.30",
            "likeCount": 0,
            "replyCount": 0,
            "queryNickname": "已刪除留言者",
            "fixNickname": 0,
            "replyMsgUid": null,
            "floorNumber": null,
            "identity": "normal",
            "board": {
                "boardUid": 1700000000000,
                "title": "【範本】提案標題：請替換為實際議題名稱",
                "message": null,
                "baseUrl": "/idea/detail/00000000-0000-4000-8000-000000000001",
                "cdate": 1700000000000,
                "postSdate": null,
                "postEdate": 1799999999999,
                "stat": 0,
                "threadId": null,
                "enable": false,
                "subjectUid": "00000000-0000-4000-8000-000000000001",
                "subjectType": "idea",
                "disable": true,
                "boardStatus": "Disable"
            },
            "unlikeCount": 0,
            "sharedCount": 0,
            "reportCount": 0,
            "inBlackCount": 0,
            "likeActions": null,
            "replyMessages": [],
            "parentMessageAuthorDisplayName": null,
            "deleteRemark": null,
            "postId": null,
            "id": 1003,
            "sideType": "Positive",
            "agreeCount": 0,
            "disagreeCount": 0,
            "sideFloorNumber": 8,
            "content4Html": "使用者已自行刪除留言",
            "status": "DELETED",
            "anonymous": false,
            "displayStyle": "deleted",
            "isAnonymous": "N",
            "hasMoreReply": false,
            "canOpenModifyBox": false,
            "agreed": false,
            "disagreed": false,
            "voted": false,
            "beforeNowROC": "2個月前",
            "isEnable": false,
            "author": {
                "userUid": "11111111-1111-4111-8111-111111111112",
                "userId": "FACEBOOK-9876543210987654",
                "userRegisterFrom": "FACEBOOK",
                "userEmail": "deleted.user@example.com",
                "userStatus": "Y",
                "nickName": "刪除前暱稱",
                "userProfiles": [],
                "isAdmin": false,
                "openId": "9876543210987654",
                "displayName": "已刪除留言者",
                "profilePicture": "https://www.example.com/avatar/deleted.png"
            },
            "content": "使用者已自行刪除留言",
            "isBlankAuthorName": false,
            "isSpam": false,
            "isDeleted": true,
            "isDeletedByAdmin": false,
            "liked": false,
            "beforeNow": "2個月前",
            "links": [],
            "images": []
        }
    ],
    "firstResult": 0,
    "maxResults": 10,
    "totalResults": 94,
    "totalPages": 10,
    "currentPage": 1,
    "surplusResults": 84,
    "otherResultCountMap": null,
    "success": true
}
